{
    "model" : {
        "min_input_size":       288,
        "max_input_size":       448,
        "anchors":              [60,104, 61,133, 70,123, 70,170, 75,106, 87,119, 90,94, 91,146, 106,105],
        "labels":               ["fenda","jiaduobao","yingyangkuaixian"]
    },

    "train": {
        "train_image_folder":   "D:\\deep_learning_vending_machines\\vending_machines\\yolo_dataset\\train_input\\",
        "train_annot_folder":   "D:\\deep_learning_vending_machines\\vending_machines\\yolo_dataset\\train_output\\",
        "cache_name":           "vending_train.pkl",

        "train_times":          2,
        "batch_size":           1,
        "learning_rate":        1e-4,
        "nb_epochs":            50,
        "warmup_epochs":        3,
        "ignore_thresh":        0.5,
        "gpus":                 "0",

        "grid_scales":          [1,1,1],
        "obj_scale":            5,
        "noobj_scale":          1,
        "xywh_scale":           1,
        "class_scale":          1,

        "tensorboard_dir":      "logs",
        "saved_weights_name":   "yolov3_checkpoint.h5",
        "debug":                true
    },

    "valid": {
        "valid_image_folder":   "D:\\deep_learning_vending_machines\\vending_machines\\yolo_dataset\\test_input\\",
        "valid_annot_folder":   "D:\\deep_learning_vending_machines\\vending_machines\\yolo_dataset\\test_output\\",
        "cache_name":           "vending_valid.pkl",

        "valid_times":          1
    }
}
